﻿[
  {
    "outputFile": "wwwroot/sass/mt/pages/TrangChu.css",
    "inputFile": "wwwroot/sass/mt/pages/TrangChu.scss"
  },
  {
    "outputFile": "wwwroot/assets/sass/mt/pages/TrangChu.css",
    "inputFile": "wwwroot/assets/sass/mt/pages/TrangChu.scss"
  },
  {
    "outputFile": "wwwroot/assets/sass/mt/pages/KhaiThacDLDDSH.css",
    "inputFile": "wwwroot/assets/sass/mt/pages/KhaiThacDLDDSH.scss"
  },
  {
    "outputFile": "wwwroot/assets/sass/mt/coms/_map.css",
    "inputFile": "wwwroot/assets/sass/mt/coms/_map.scss"
  },
  {
    "outputFile": "wwwroot/assets/sass/mt/coms/tableoutput.css",
    "inputFile": "wwwroot/assets/sass/mt/coms/tableoutput.scss"
  },
  {
    "outputFile": "wwwroot/assets/sass/mt/layout/_header.css",
    "inputFile": "wwwroot/assets/sass/mt/layout/_header.scss"
  },
  {
    "outputFile": "wwwroot/assets/sass/mt/pages/HoSo_MT.css",
    "inputFile": "wwwroot/assets/sass/mt/pages/HoSo_MT.scss"
  },
  {
    "outputFile": "wwwroot/assets/sass/portal/coms/_map.css",
    "inputFile": "wwwroot/assets/sass/portal/coms/_map.scss"
  },
  {
    "outputFile": "wwwroot/assets/sass/portal/pages/_DuLieu.css",
    "inputFile": "wwwroot/assets/sass/portal/pages/_DuLieu.scss"
  },
  {
    "outputFile": "wwwroot/assets/sass/portal/pages/_hoiDap.css",
    "inputFile": "wwwroot/assets/sass/portal/pages/_hoiDap.scss"
  }
]